DAY,FEMALE,MALE,SALES
3, 0.62428, 0.37572, 20.49535
4,0.6443,0.3557,35.38812
5,0.59568,0.40432,27.16547
6,0.6054,0.3946,36.70219
7,0.60232,0.39768,33.81417
1,0.62232,0.37768,19.42456
2,0.63983,0.36017,20.05819
3,0.61365,0.38635,18.35772
4,0.64686,0.35314,17.41883
5,0.64368,0.35632,20.00772
6,0.61754,0.38246,28.50506
7,0.62196,0.37804,33.63081
1,0.64426,0.35574,19.13956
2,0.62052,0.37948,19.19733
3,0.63432,0.36568,18.95809
4,0.64963,0.35037,17.71439
5,0.63708,0.36292,19.6652
6,0.60976,0.39024,28.57667
7,0.59356,0.40644,33.97282
1,0.64212,0.35788,18.67652
2,0.66037,0.33963,17.708
3,0.63573,0.36427,17.23343
4,0.63376,0.36624,16.87872
5,0.6747,0.3253,20.67689
6,0.61745,0.38255,26.60571
7,0.60317,0.39683,30.67972
1,0.6512,0.3488,17.54853
2,0.63184,0.36816,16.00518
3,0.63684,0.36316,17.60961
4,0.63717,0.36283,17.07131
5,0.65323,0.34677,19.20981
6,0.60479,0.39521,26.38849
7,0.63226,0.36774,30.40515
1,0.62821,0.37179,18.02365
2,0.63159,0.36841,15.4262
3,0.64418,0.35582,18.52778
4,0.65082,0.34918,17.40191
5,0.64794,0.35206,19.22759
6,0.61367,0.38633,27.13321
7,0.59636,0.40364,34.43902
1,0.65036,0.34964,19.0847
2,0.63394,0.36606,17.35562
3,0.65471,0.34529,15.52546
4,0.65941,0.34059,15.7663
5,0.65844,0.34156,17.44911
6,0.62566,0.37434,26.45342
7,0.60419,0.39581,29.97602
1,0.66169,0.33831,16.05504
2,0.63279,0.36721,16.59834
3,0.61719,0.38281,16.85502
4,0.64747,0.35253,15.65966
5,0.66377,0.33623,18.69535
6,0.62702,0.37298,28.94343
7,0.62105,0.37895,31.09906
